%YAML 1.1
%TAG !u! tag:unity3d.com,2011:
--- !u!114 &7129314164984254148
MonoBehaviour:
  m_ObjectHideFlags: 0
  m_CorrespondingSourceObject: {fileID: 0}
  m_PrefabInstance: {fileID: 0}
  m_PrefabAsset: {fileID: 0}
  m_GameObject: {fileID: 1132764626291812284}
  m_Enabled: 1
  m_EditorHideFlags: 0
  m_Script: {fileID: 11500000, guid: e07b65d38396491bbef114ac9471eeca, type: 3}
  m_Name: 
  m_EditorClassIdentifier: 
--- !u!1001 &1174203563852611359
PrefabInstance:
  m_ObjectHideFlags: 0
  serializedVersion: 2
  m_Modification:
    m_TransformParent: {fileID: 0}
    m_Modifications:
    - target: {fileID: 2302457091073469191, guid: 69d1b1037536b504884c93bb73d662db,
        type: 3}
      propertyPath: InitialModule.startSize.minScalar
      value: 0.01
      objectReference: {fileID: 0}
    - target: {fileID: 2302457091073469191, guid: 69d1b1037536b504884c93bb73d662db,
        type: 3}
      propertyPath: InitialModule.startSize.scalar
      value: 0.1
      objectReference: {fileID: 0}
    - target: {fileID: 2302457091073469191, guid: 69d1b1037536b504884c93bb73d662db,
        type: 3}
      propertyPath: InitialModule.startSpeed.scalar
      value: 15
      objectReference: {fileID: 0}
    - target: {fileID: 2302457091073469191, guid: 69d1b1037536b504884c93bb73d662db,
        type: 3}
      propertyPath: ColorModule.gradient.maxGradient.key0.r
      value: 1
      objectReference: {fileID: 0}
    - target: {fileID: 2302457091073469191, guid: 69d1b1037536b504884c93bb73d662db,
        type: 3}
      propertyPath: ColorModule.gradient.maxGradient.key0.g
      value: 0
      objectReference: {fileID: 0}
    - target: {fileID: 2302457091073469191, guid: 69d1b1037536b504884c93bb73d662db,
        type: 3}
      propertyPath: ColorModule.gradient.maxGradient.ctime0
      value: 16962
      objectReference: {fileID: 0}
    - target: {fileID: 2302457091073469191, guid: 69d1b1037536b504884c93bb73d662db,
        type: 3}
      propertyPath: ColorModule.gradient.maxGradient.key1.r
      value: 0.0043219887
      objectReference: {fileID: 0}
    - target: {fileID: 2302457091073469191, guid: 69d1b1037536b504884c93bb73d662db,
        type: 3}
      propertyPath: ColorModule.gradient.maxGradient.key1.g
      value: 0.8171604
      objectReference: {fileID: 0}
    - target: {fileID: 2302457091073469191, guid: 69d1b1037536b504884c93bb73d662db,
        type: 3}
      propertyPath: ColorModule.gradient.maxGradient.key1.b
      value: 0.92450565
      objectReference: {fileID: 0}
    - target: {fileID: 2302457091073469191, guid: 69d1b1037536b504884c93bb73d662db,
        type: 3}
      propertyPath: ColorModule.gradient.maxGradient.ctime1
      value: 31226
      objectReference: {fileID: 0}
    - target: {fileID: 2302457091073469191, guid: 69d1b1037536b504884c93bb73d662db,
        type: 3}
      propertyPath: ColorModule.gradient.maxGradient.atime1
      value: 65535
      objectReference: {fileID: 0}
    - target: {fileID: 2302457091073469191, guid: 69d1b1037536b504884c93bb73d662db,
        type: 3}
      propertyPath: ColorModule.gradient.maxGradient.atime0
      value: 0
      objectReference: {fileID: 0}
    - target: {fileID: 2302457091073469191, guid: 69d1b1037536b504884c93bb73d662db,
        type: 3}
      propertyPath: ColorModule.gradient.maxGradient.key2.r
      value: 0
      objectReference: {fileID: 0}
    - target: {fileID: 2302457091073469191, guid: 69d1b1037536b504884c93bb73d662db,
        type: 3}
      propertyPath: ColorModule.gradient.maxGradient.key2.g
      value: 0.8022299
      objectReference: {fileID: 0}
    - target: {fileID: 2302457091073469191, guid: 69d1b1037536b504884c93bb73d662db,
        type: 3}
      propertyPath: ColorModule.gradient.maxGradient.key2.b
      value: 1
      objectReference: {fileID: 0}
    - target: {fileID: 2302457091073469191, guid: 69d1b1037536b504884c93bb73d662db,
        type: 3}
      propertyPath: ColorModule.gradient.maxGradient.ctime2
      value: 37394
      objectReference: {fileID: 0}
    - target: {fileID: 2302457091073469191, guid: 69d1b1037536b504884c93bb73d662db,
        type: 3}
      propertyPath: ColorModule.gradient.maxGradient.m_NumColorKeys
      value: 2
      objectReference: {fileID: 0}
    - target: {fileID: 2302457091073469191, guid: 69d1b1037536b504884c93bb73d662db,
        type: 3}
      propertyPath: ColorModule.gradient.maxGradient.key1.a
      value: 0.4509804
      objectReference: {fileID: 0}
    - target: {fileID: 2302457091073469191, guid: 69d1b1037536b504884c93bb73d662db,
        type: 3}
      propertyPath: InitialModule.startLifetime.scalar
      value: 0.2
      objectReference: {fileID: 0}
    - target: {fileID: 2302457091073469191, guid: 69d1b1037536b504884c93bb73d662db,
        type: 3}
      propertyPath: InitialModule.startSpeed.minScalar
      value: 10
      objectReference: {fileID: 0}
    - target: {fileID: 2302457091073469191, guid: 69d1b1037536b504884c93bb73d662db,
        type: 3}
      propertyPath: ColorModule.gradient.maxGradient.key0.b
      value: 0.093779564
      objectReference: {fileID: 0}
    - target: {fileID: 2302457091073498935, guid: 69d1b1037536b504884c93bb73d662db,
        type: 3}
      propertyPath: m_Materials.Array.size
      value: 1
      objectReference: {fileID: 0}
    - target: {fileID: 2302457091092795123, guid: 69d1b1037536b504884c93bb73d662db,
        type: 3}
      propertyPath: m_LocalPosition.x
      value: 0
      objectReference: {fileID: 0}
    - target: {fileID: 2302457091092795123, guid: 69d1b1037536b504884c93bb73d662db,
        type: 3}
      propertyPath: m_LocalPosition.y
      value: 0
      objectReference: {fileID: 0}
    - target: {fileID: 2302457091092795123, guid: 69d1b1037536b504884c93bb73d662db,
        type: 3}
      propertyPath: m_LocalPosition.z
      value: 0
      objectReference: {fileID: 0}
    - target: {fileID: 2302457091092795123, guid: 69d1b1037536b504884c93bb73d662db,
        type: 3}
      propertyPath: m_LocalRotation.x
      value: 0
      objectReference: {fileID: 0}
    - target: {fileID: 2302457091092795123, guid: 69d1b1037536b504884c93bb73d662db,
        type: 3}
      propertyPath: m_LocalRotation.y
      value: 0
      objectReference: {fileID: 0}
    - target: {fileID: 2302457091092795123, guid: 69d1b1037536b504884c93bb73d662db,
        type: 3}
      propertyPath: m_LocalRotation.z
      value: 0
      objectReference: {fileID: 0}
    - target: {fileID: 2302457091092795123, guid: 69d1b1037536b504884c93bb73d662db,
        type: 3}
      propertyPath: m_LocalRotation.w
      value: 1
      objectReference: {fileID: 0}
    - target: {fileID: 2302457091092795123, guid: 69d1b1037536b504884c93bb73d662db,
        type: 3}
      propertyPath: m_RootOrder
      value: 0
      objectReference: {fileID: 0}
    - target: {fileID: 2302457091092795123, guid: 69d1b1037536b504884c93bb73d662db,
        type: 3}
      propertyPath: m_LocalEulerAnglesHint.x
      value: 0
      objectReference: {fileID: 0}
    - target: {fileID: 2302457091092795123, guid: 69d1b1037536b504884c93bb73d662db,
        type: 3}
      propertyPath: m_LocalEulerAnglesHint.y
      value: 0
      objectReference: {fileID: 0}
    - target: {fileID: 2302457091092795123, guid: 69d1b1037536b504884c93bb73d662db,
        type: 3}
      propertyPath: m_LocalEulerAnglesHint.z
      value: 0
      objectReference: {fileID: 0}
    - target: {fileID: 2302457091092795123, guid: 69d1b1037536b504884c93bb73d662db,
        type: 3}
      propertyPath: m_LocalScale.x
      value: 0.4876571
      objectReference: {fileID: 0}
    - target: {fileID: 2302457091092795123, guid: 69d1b1037536b504884c93bb73d662db,
        type: 3}
      propertyPath: m_LocalScale.y
      value: 0.4876571
      objectReference: {fileID: 0}
    - target: {fileID: 2302457091092795123, guid: 69d1b1037536b504884c93bb73d662db,
        type: 3}
      propertyPath: m_LocalScale.z
      value: 0.4876571
      objectReference: {fileID: 0}
    - target: {fileID: 2302457091093092515, guid: 69d1b1037536b504884c93bb73d662db,
        type: 3}
      propertyPath: m_Name
      value: Generic Impact Effect Red
      objectReference: {fileID: 0}
    m_RemovedComponents: []
  m_SourcePrefab: {fileID: 100100000, guid: 69d1b1037536b504884c93bb73d662db, type: 3}
--- !u!1 &1132764626291812284 stripped
GameObject:
  m_CorrespondingSourceObject: {fileID: 2302457091093092515, guid: 69d1b1037536b504884c93bb73d662db,
    type: 3}
  m_PrefabInstance: {fileID: 1174203563852611359}
  m_PrefabAsset: {fileID: 0}
