%YAML 1.1
%TAG !u! tag:unity3d.com,2011:
--- !u!1045 &1
EditorBuildSettings:
  m_ObjectHideFlags: 0
  serializedVersion: 2
  m_Scenes:
  - enabled: 1
    path: Assets/Scenes/Sandbox.unity
    guid: b8791a75cdc49442485e89043e90197f
  - enabled: 1
    path: Assets/Scenes/Sandbox 2.unity
    guid: d3dbc20c9354b4d5ca60937ddabdbf4b
  m_configObjects: {}
